No 0 time 1.00000e-04 bulk energy: 6.98160e-04 crack energy: 3.00570e-08  Load y: 1.43356e+01
No 1 time 2.00000e-04 bulk energy: 2.79190e-03 crack energy: 4.72211e-07  Load y: 2.86703e+01
No 2 time 3.00000e-04 bulk energy: 6.27901e-03 crack energy: 2.38166e-06  Load y: 4.30018e+01
No 3 time 4.00000e-04 bulk energy: 1.11558e-02 crack energy: 7.51456e-06  Load y: 5.73290e+01
No 4 time 5.00000e-04 bulk energy: 1.74172e-02 crack energy: 1.83242e-05  Load y: 7.16503e+01
No 5 time 6.00000e-04 bulk energy: 2.50564e-02 crack energy: 3.79558e-05  Load y: 8.59645e+01
No 6 time 7.00000e-04 bulk energy: 3.40656e-02 crack energy: 7.02398e-05  Load y: 1.00270e+02
No 7 time 8.00000e-04 bulk energy: 4.44351e-02 crack energy: 1.19684e-04  Load y: 1.14565e+02
No 8 time 9.00000e-04 bulk energy: 5.61541e-02 crack energy: 1.91462e-04  Load y: 1.28849e+02
No 9 time 1.00000e-03 bulk energy: 6.92102e-02 crack energy: 2.91408e-04  Load y: 1.43120e+02
No 10 time 1.10000e-03 bulk energy: 8.35898e-02 crack energy: 4.25995e-04  Load y: 1.57376e+02
No 11 time 1.20000e-03 bulk energy: 9.92777e-02 crack energy: 6.02332e-04  Load y: 1.71616e+02
No 12 time 1.30000e-03 bulk energy: 1.16258e-01 crack energy: 8.28143e-04  Load y: 1.85839e+02
No 13 time 1.40000e-03 bulk energy: 1.34512e-01 crack energy: 1.11175e-03  Load y: 2.00043e+02
No 14 time 1.50000e-03 bulk energy: 1.54021e-01 crack energy: 1.46206e-03  Load y: 2.14227e+02
No 15 time 1.60000e-03 bulk energy: 1.74765e-01 crack energy: 1.88856e-03  Load y: 2.28389e+02
No 16 time 1.70000e-03 bulk energy: 1.96722e-01 crack energy: 2.40126e-03  Load y: 2.42528e+02
No 17 time 1.80000e-03 bulk energy: 2.19869e-01 crack energy: 3.01071e-03  Load y: 2.56643e+02
No 18 time 1.90000e-03 bulk energy: 2.44183e-01 crack energy: 3.72798e-03  Load y: 2.70731e+02
No 19 time 2.00000e-03 bulk energy: 2.69638e-01 crack energy: 4.56461e-03  Load y: 2.84793e+02
No 20 time 2.10000e-03 bulk energy: 2.96208e-01 crack energy: 5.53263e-03  Load y: 2.98825e+02
No 21 time 2.20000e-03 bulk energy: 3.23865e-01 crack energy: 6.64450e-03  Load y: 3.12827e+02
No 22 time 2.30000e-03 bulk energy: 3.52581e-01 crack energy: 7.91310e-03  Load y: 3.26798e+02
No 23 time 2.40000e-03 bulk energy: 3.82327e-01 crack energy: 9.35174e-03  Load y: 3.40736e+02
No 24 time 2.50000e-03 bulk energy: 4.13071e-01 crack energy: 1.09741e-02  Load y: 3.54639e+02
No 25 time 2.60000e-03 bulk energy: 4.44783e-01 crack energy: 1.27942e-02  Load y: 3.68506e+02
No 26 time 2.70000e-03 bulk energy: 4.77429e-01 crack energy: 1.48265e-02  Load y: 3.82335e+02
No 27 time 2.80000e-03 bulk energy: 5.10977e-01 crack energy: 1.70856e-02  Load y: 3.96126e+02
No 28 time 2.90000e-03 bulk energy: 5.45391e-01 crack energy: 1.95866e-02  Load y: 4.09877e+02
No 29 time 3.00000e-03 bulk energy: 5.80637e-01 crack energy: 2.23449e-02  Load y: 4.23587e+02
No 30 time 3.10000e-03 bulk energy: 6.16678e-01 crack energy: 2.53759e-02  Load y: 4.37253e+02
No 31 time 3.20000e-03 bulk energy: 6.53478e-01 crack energy: 2.86956e-02  Load y: 4.50874e+02
No 32 time 3.30000e-03 bulk energy: 6.90997e-01 crack energy: 3.23201e-02  Load y: 4.64450e+02
No 33 time 3.40000e-03 bulk energy: 7.29199e-01 crack energy: 3.62658e-02  Load y: 4.77978e+02
No 34 time 3.50000e-03 bulk energy: 7.68041e-01 crack energy: 4.05493e-02  Load y: 4.91457e+02
No 35 time 3.60000e-03 bulk energy: 8.07485e-01 crack energy: 4.51874e-02  Load y: 5.04886e+02
No 36 time 3.70000e-03 bulk energy: 8.47488e-01 crack energy: 5.01973e-02  Load y: 5.18262e+02
No 37 time 3.80000e-03 bulk energy: 8.88009e-01 crack energy: 5.55965e-02  Load y: 5.31584e+02
No 38 time 3.90000e-03 bulk energy: 9.29002e-01 crack energy: 6.14026e-02  Load y: 5.44851e+02
No 39 time 4.00000e-03 bulk energy: 9.70425e-01 crack energy: 6.76337e-02  Load y: 5.58059e+02
No 40 time 4.10000e-03 bulk energy: 1.01223e+00 crack energy: 7.43083e-02  Load y: 5.71208e+02
No 41 time 4.20000e-03 bulk energy: 1.04839e+00 crack energy: 8.11788e-02  Load y: 5.81356e+02
No 42 time 4.30000e-03 bulk energy: 1.08994e+00 crack energy: 8.90468e-02  Load y: 5.93489e+02
No 43 time 4.40000e-03 bulk energy: 1.13192e+00 crack energy: 9.72653e-02  Load y: 6.05789e+02
No 44 time 4.50000e-03 bulk energy: 1.17440e+00 crack energy: 1.05883e-01  Load y: 6.18596e+02
No 45 time 4.60000e-03 bulk energy: 1.21632e+00 crack energy: 1.14968e-01  Load y: 6.31133e+02
No 46 time 4.70000e-03 bulk energy: 1.25881e+00 crack energy: 1.24750e-01  Load y: 6.43717e+02
No 47 time 4.80000e-03 bulk energy: 1.30120e+00 crack energy: 1.35173e-01  Load y: 6.56059e+02
No 48 time 4.90000e-03 bulk energy: 1.34340e+00 crack energy: 1.46240e-01  Load y: 6.68217e+02
No 49 time 5.00000e-03 bulk energy: 1.38507e+00 crack energy: 1.58067e-01  Load y: 6.82644e+02
No 50 time 5.10000e-03 bulk energy: 1.42655e+00 crack energy: 1.70555e-01  Load y: 6.97779e+02
No 51 time 5.20000e-03 bulk energy: 1.46779e+00 crack energy: 1.83794e-01  Load y: 7.08856e+02
No 52 time 5.30000e-03 bulk energy: 1.50839e+00 crack energy: 1.97826e-01  Load y: 7.19184e+02
No 53 time 5.40000e-03 bulk energy: 1.54790e+00 crack energy: 2.12728e-01  Load y: 7.29909e+02
No 54 time 5.50000e-03 bulk energy: 1.58679e+00 crack energy: 2.28698e-01  Load y: 7.40584e+02
No 55 time 5.60000e-03 bulk energy: 1.62422e+00 crack energy: 2.45811e-01  Load y: 7.51305e+02
No 56 time 5.70000e-03 bulk energy: 1.65987e+00 crack energy: 2.64258e-01  Load y: 7.60366e+02
No 57 time 5.80000e-03 bulk energy: 1.69320e+00 crack energy: 2.84380e-01  Load y: 7.69074e+02
No 58 time 5.90000e-03 bulk energy: 1.72301e+00 crack energy: 3.06656e-01  Load y: 7.76616e+02
No 59 time 5.90100e-03 bulk energy: 1.72142e+00 crack energy: 3.07808e-01  Load y: 7.77328e+02
No 60 time 5.90200e-03 bulk energy: 1.71820e+00 crack energy: 3.09877e-01  Load y: 7.74002e+02
No 61 time 5.90300e-03 bulk energy: 1.71392e+00 crack energy: 3.12515e-01  Load y: 7.70763e+02
No 62 time 5.90400e-03 bulk energy: 1.70907e+00 crack energy: 3.15464e-01  Load y: 7.67567e+02
No 63 time 5.90500e-03 bulk energy: 1.70402e+00 crack energy: 3.18505e-01  Load y: 7.64571e+02
No 64 time 5.90600e-03 bulk energy: 1.69907e+00 crack energy: 3.21478e-01  Load y: 7.61812e+02
No 65 time 5.90700e-03 bulk energy: 1.69442e+00 crack energy: 3.24284e-01  Load y: 7.59275e+02
No 66 time 5.90800e-03 bulk energy: 1.69016e+00 crack energy: 3.26872e-01  Load y: 7.56948e+02
No 67 time 5.90900e-03 bulk energy: 1.68634e+00 crack energy: 3.29226e-01  Load y: 7.54839e+02
No 68 time 5.91000e-03 bulk energy: 1.68293e+00 crack energy: 3.31354e-01  Load y: 7.52957e+02
No 69 time 5.91100e-03 bulk energy: 1.67990e+00 crack energy: 3.33282e-01  Load y: 7.51298e+02
No 70 time 5.91200e-03 bulk energy: 1.67717e+00 crack energy: 3.35050e-01  Load y: 7.49832e+02
No 71 time 5.91300e-03 bulk energy: 1.67465e+00 crack energy: 3.36705e-01  Load y: 7.48508e+02
No 72 time 5.91400e-03 bulk energy: 1.67222e+00 crack energy: 3.38304e-01  Load y: 7.47259e+02
No 73 time 5.91500e-03 bulk energy: 1.66976e+00 crack energy: 3.39917e-01  Load y: 7.46008e+02
No 74 time 5.91600e-03 bulk energy: 1.66710e+00 crack energy: 3.41624e-01  Load y: 7.44670e+02
No 75 time 5.91700e-03 bulk energy: 1.66404e+00 crack energy: 3.43526e-01  Load y: 7.43146e+02
No 76 time 5.91800e-03 bulk energy: 1.66031e+00 crack energy: 3.45754e-01  Load y: 7.41315e+02
No 77 time 5.91900e-03 bulk energy: 1.65554e+00 crack energy: 3.48487e-01  Load y: 7.39012e+02
No 78 time 5.92000e-03 bulk energy: 1.64918e+00 crack energy: 3.51986e-01  Load y: 7.35998e+02
No 79 time 5.92100e-03 bulk energy: 1.64040e+00 crack energy: 3.56639e-01  Load y: 7.31920e+02
No 80 time 5.92200e-03 bulk energy: 1.62787e+00 crack energy: 3.63047e-01  Load y: 7.26217e+02
No 81 time 5.92300e-03 bulk energy: 1.60946e+00 crack energy: 3.72151e-01  Load y: 7.17973e+02
No 82 time 5.92400e-03 bulk energy: 1.58175e+00 crack energy: 3.85390e-01  Load y: 7.05674e+02
No 83 time 5.92500e-03 bulk energy: 1.54019e+00 crack energy: 4.04662e-01  Load y: 6.86898e+02
No 84 time 5.92600e-03 bulk energy: 1.48080e+00 crack energy: 4.30728e-01  Load y: 6.58433e+02
No 85 time 5.92700e-03 bulk energy: 1.39868e+00 crack energy: 4.58957e-01  Load y: 6.17776e+02
No 86 time 5.92800e-03 bulk energy: 1.30914e+00 crack energy: 4.93822e-01  Load y: 5.68778e+02
No 87 time 5.92900e-03 bulk energy: 1.22013e+00 crack energy: 5.30091e-01  Load y: 5.19469e+02
No 88 time 5.93000e-03 bulk energy: 1.12881e+00 crack energy: 5.66496e-01  Load y: 4.72105e+02
No 89 time 5.93100e-03 bulk energy: 1.03557e+00 crack energy: 6.03577e-01  Load y: 4.25322e+02
No 90 time 5.93200e-03 bulk energy: 9.41373e-01 crack energy: 6.41016e-01  Load y: 3.79182e+02
No 91 time 5.93300e-03 bulk energy: 8.47133e-01 crack energy: 6.78646e-01  Load y: 3.34412e+02
No 92 time 5.93400e-03 bulk energy: 7.52773e-01 crack energy: 7.16730e-01  Load y: 2.91136e+02
No 93 time 5.93500e-03 bulk energy: 6.57024e-01 crack energy: 7.55959e-01  Load y: 2.48983e+02
No 94 time 5.93600e-03 bulk energy: 5.57105e-01 crack energy: 7.97547e-01  Load y: 2.07155e+02
No 95 time 5.93700e-03 bulk energy: 4.47565e-01 crack energy: 8.43613e-01  Load y: 1.64097e+02
No 96 time 5.93800e-03 bulk energy: 3.15835e-01 crack energy: 8.96088e-01  Load y: 1.16221e+02
No 97 time 5.93900e-03 bulk energy: 1.44542e-01 crack energy: 9.41183e-01  Load y: 5.59550e+01
No 98 time 5.94000e-03 bulk energy: 3.21377e-02 crack energy: 9.27829e-01  Load y: 6.10325e+00
#No 99 time 5.94100e-03 bulk energy: 2.29876e-02 crack energy: 9.08459e-01  Load y: 6.32153e+00
#No 100 time 5.94200e-03 bulk energy: 2.32832e-02 crack energy: 9.08286e-01  Load y: 8.09223e+00
#No 101 time 5.94300e-03 bulk energy: 2.32987e-02 crack energy: 9.08278e-01  Load y: 8.14740e+00
#No 102 time 5.94400e-03 bulk energy: 2.32635e-02 crack energy: 9.08295e-01  Load y: 8.03124e+00
#No 103 time 5.94500e-03 bulk energy: 2.32531e-02 crack energy: 9.08305e-01  Load y: 7.99903e+00
#No 104 time 5.94600e-03 bulk energy: 2.32489e-02 crack energy: 9.08313e-01  Load y: 8.00267e+00
#No 105 time 5.94700e-03 bulk energy: 2.32423e-02 crack energy: 9.08320e-01  Load y: 8.00203e+00
#No 106 time 5.94800e-03 bulk energy: 2.32346e-02 crack energy: 9.08328e-01  Load y: 7.99751e+00
#No 107 time 5.94900e-03 bulk energy: 2.32272e-02 crack energy: 9.08336e-01  Load y: 7.99316e+00
#No 108 time 5.95000e-03 bulk energy: 2.32200e-02 crack energy: 9.08344e-01  Load y: 7.98935e+00
#No 109 time 5.95100e-03 bulk energy: 2.32128e-02 crack energy: 9.08352e-01  Load y: 7.98560e+00
#No 110 time 5.95200e-03 bulk energy: 2.32056e-02 crack energy: 9.08360e-01  Load y: 7.98178e+00
#No 111 time 5.95300e-03 bulk energy: 2.31984e-02 crack energy: 9.08368e-01  Load y: 7.97794e+00
#No 112 time 5.95400e-03 bulk energy: 2.31912e-02 crack energy: 9.08376e-01  Load y: 7.97411e+00
#No 113 time 5.95500e-03 bulk energy: 2.31840e-02 crack energy: 9.08383e-01  Load y: 7.97029e+00
#No 114 time 5.95600e-03 bulk energy: 2.31768e-02 crack energy: 9.08391e-01  Load y: 7.96647e+00
#No 115 time 5.95700e-03 bulk energy: 2.31696e-02 crack energy: 9.08399e-01  Load y: 7.96265e+00
#No 116 time 5.95800e-03 bulk energy: 2.31624e-02 crack energy: 9.08407e-01  Load y: 7.95883e+00
#No 117 time 5.95900e-03 bulk energy: 2.31552e-02 crack energy: 9.08415e-01  Load y: 7.95502e+00
